  [ F_, F_m, - ]

  [ V_1_, V_1_, + ]

  [ V_2_, V_2_, + ]

  [ G_, G_m, - ]

  [ F_m, F_, V_1_ ; GS_pow=1, EL_pow=0]

  [ F_m, F_, V_2_ ; GS_pow=0, EL_pow=1]

  [ V_1_, V_1_, V_1_ ; GS_pow=1, EL_pow=0]

  [ V_1_, V_1_, V_1_, V_1_ ; GS_pow=2, EL_pow=0]

  [ G_m, G_, V_1_ ; GS_pow=1, EL_pow=0]

